ISEexamples/Examples/jc2_abl_cr2/jc2_top.vcd
$date
	Wed Mar 10 11:14:27 2004
$end
$version
	ModelSim Version 5.8b
$end
$timescale
	1ps
$end
$scope module testbench $end
$scope module uut $end
$var wire 1 ! cdrst $end
$var wire 1 " clkin $end
$var wire 1 # left $end
$var wire 1 $ right $end
$var wire 1 % stop $end
$var wire 1 & q [3] $end
$var wire 1 ' q [2] $end
$var wire 1 ( q [1] $end
$var wire 1 ) q [0] $end
$var wire 1 * cdrst_ii_uim $end
$var wire 1 + clkin_ii_fclk_tsimcreated_clkdiv_q $end
$var wire 1 , clkin_ii_fclk $end
$var wire 1 - left_ii_uim $end
$var wire 1 . right_ii_uim $end
$var wire 1 / stop_ii_uim $end
$var wire 1 0 q_0_mc_q $end
$var wire 1 1 q_1_mc_q $end
$var wire 1 2 q_2_mc_q $end
$var wire 1 3 q_3_mc_q $end
$var wire 1 4 q_0_mc_q_tsimrenamed_net_q $end
$var wire 1 5 q_0_mc_uim $end
$var wire 1 6 q_0_mc_d $end
$var wire 1 7 gnd $end
$var wire 1 8 prld $end
$var wire 1 9 vcc $end
$var wire 1 : q_0_mc_d1 $end
$var wire 1 ; q_0_mc_d2 $end
$var wire 1 < run $end
$var wire 1 = q_0_mc_d2_pt_0 $end
$var wire 1 > dir $end
$var wire 1 ? q_3_mc_uim $end
$var wire 1 @ q_0_mc_d2_pt_1 $end
$var wire 1 A q_1_mc_uim $end
$var wire 1 B q_0_mc_d2_pt_2 $end
$var wire 1 C q_3_mc_q_tsimrenamed_net_q $end
$var wire 1 D q_3_mc_d $end
$var wire 1 E q_3_mc_d1 $end
$var wire 1 F q_3_mc_d2 $end
$var wire 1 G q_3_mc_d2_pt_0 $end
$var wire 1 H q_3_mc_d2_pt_1 $end
$var wire 1 I q_2_mc_uim $end
$var wire 1 J q_3_mc_d2_pt_2 $end
$var wire 1 K q_2_mc_q_tsimrenamed_net_q $end
$var wire 1 L q_2_mc_d $end
$var wire 1 M q_2_mc_d1 $end
$var wire 1 N q_2_mc_d2 $end
$var wire 1 O q_2_mc_d2_pt_0 $end
$var wire 1 P q_2_mc_d2_pt_1 $end
$var wire 1 Q q_2_mc_d2_pt_2 $end
$var wire 1 R q_1_mc_q_tsimrenamed_net_q $end
$var wire 1 S q_1_mc_d $end
$var wire 1 T q_1_mc_d1 $end
$var wire 1 U q_1_mc_d2 $end
$var wire 1 V q_1_mc_d2_pt_0 $end
$var wire 1 W q_1_mc_d2_pt_1 $end
$var wire 1 X q_1_mc_d2_pt_2 $end
$var wire 1 Y dir_mc_q $end
$var wire 1 Z dir_mc_d $end
$var wire 1 [ dir_mc_d1 $end
$var wire 1 \ dir_mc_d2 $end
$var wire 1 ] dir_mc_d2_pt_0 $end
$var wire 1 ^ dir_mc_d2_pt_1 $end
$var wire 1 _ run_mc_q $end
$var wire 1 ` run_mc_d $end
$var wire 1 a run_mc_d1 $end
$var wire 1 b run_mc_d2 $end
$var wire 1 c run_mc_d2_pt_0 $end
$var wire 1 d run_mc_d2_pt_1 $end
$var wire 1 e nlwinvertersignal_q_0_mc_d2_pt_0_in1 $end
$var wire 1 f nlwinvertersignal_q_0_mc_d2_pt_1_in2 $end
$var wire 1 g nlwinvertersignal_q_0_mc_d2_pt_2_in1 $end
$var wire 1 h nlwinvertersignal_q_3_mc_d2_pt_0_in0 $end
$var wire 1 i nlwinvertersignal_q_3_mc_d2_pt_1_in0 $end
$var wire 1 j nlwinvertersignal_q_3_mc_d2_pt_1_in2 $end
$var wire 1 k nlwinvertersignal_q_2_mc_d2_pt_0_in0 $end
$var wire 1 l nlwinvertersignal_q_2_mc_d2_pt_2_in1 $end
$var wire 1 m nlwinvertersignal_q_1_mc_d2_pt_0_in0 $end
$var wire 1 n nlwinvertersignal_q_1_mc_d2_pt_2_in1 $end
$var wire 1 o nlwinvertersignal_dir_mc_d2_pt_0_in0 $end
$var wire 1 p nlwinvertersignal_dir_mc_d2_pt_0_in1 $end
$var wire 1 q nlwinvertersignal_run_mc_d_in0 $end
$var wire 1 r nlwinvertersignal_run_mc_d2_pt_0_in1 $end
$var wire 1 s nlwinvertersignal_run_mc_d2_pt_1_in1 $end
$upscope $end
$upscope $end
$enddefinitions $end
#0
$dumpvars
1!
0"
1#
1$
1%
x&
x'
x(
x)
x*
x+
0,
x-
x.
x/
x0
x1
x2
x3
x4
x5
x6
07
18
19
0:
x;
x<
x=
x>
x?
x@
xA
xB
xC
xD
0E
xF
xG
xH
xI
xJ
xK
xL
0M
xN
xO
xP
xQ
xR
xS
0T
xU
xV
xW
xX
xY
xZ
0[
x\
x]
x^
x_
x`
0a
xb
xc
xd
xe
xf
xg
xh
xi
xj
xk
xl
xm
xn
xo
xp
1q
xr
xs
$end
#1400
0+
#1600
1-
1.
1/
1*
0r
0o
#2000
04
0C
0K
0R
0Y
0_
0<
0>
01
0A
02
0I
03
0?
00
05
1i
1f
1g
1j
1l
1n
1p
1e
1h
1k
1m
1s
#2300
0c
0]
#3800
0)
0&
0'
0(
#3900
1d
0H
0^
0@
0V
0P
0B
0X
0O
0J
0Q
0G
0W
0=
0N
0U
0;
0\
0F
1b
0`
0D
0Z
06
0S
0L
#10000
1"
#11400
1+
#20000
0"
#21400
0+
#30000
1"
#31400
1+
#40000
0"
#41400
0+
#50000
1"
0!
#51400
1+
#51600
0*
#60000
0"
#61400
0+
#70000
1"
#71400
1+
1,
#80000
0"
#81400
0+
#90000
1"
#91400
1+
#100000
08
0"
#101400
0+
#110000
1"
#111400
1+
#120000
0"
#121400
0+
#130000
1"
#131400
1+
#140000
0"
0#
#141400
0+
#141600
0-
1o
#142300
1]
0d
0b
1\
1Z
1`
#150000
1"
#151400
1+
0,
#151600
1Y
1_
1<
1>
0g
0j
0l
0n
0p
0e
0h
0k
0m
0s
#153500
0]
1^
1@
1;
16
#160000
0"
#161400
0+
#170000
1"
#171400
1+
#180000
0"
#181400
0+
#190000
1"
#191400
1+
#200000
0"
#201400
0+
#210000
1"
#211400
1+
#220000
0"
#221400
0+
#230000
1"
#231400
1+
1,
#231600
14
10
15
0i
#233400
1)
#233500
1W
1U
1S
#240000
0"
#241400
0+
#250000
1"
#251400
1+
#260000
0"
#261400
0+
#270000
1"
#271400
1+
#280000
0"
#281400
0+
#290000
1"
#291400
1+
#300000
0"
#301400
0+
#310000
1"
#311400
1+
0,
#311600
1R
11
1A
#313400
1(
#313500
1P
1N
1L
#320000
0"
#321400
0+
#330000
1"
#331400
1+
#340000
0"
1#
#341400
0+
#341600
1-
0o
#350000
1"
#351400
1+
#360000
0"
#361400
0+
#370000
1"
#371400
1+
#380000
0"
#381400
0+
#390000
1"
#391400
1+
1,
#391600
1K
12
1I
#393400
1'
#393500
1J
1F
1D
#400000
0"
#401400
0+
#410000
1"
#411400
1+
#420000
0"
#421400
0+
#430000
1"
#431400
1+
#440000
0"
#441400
0+
#450000
1"
#451400
1+
#460000
0"
#461400
0+
#470000
1"
#471400
1+
0,
#471600
1C
13
1?
0f
#473400
1&
#473500
0@
0;
06
#480000
0"
#481400
0+
#490000
1"
#491400
1+
#500000
0"
#501400
0+
#510000
1"
#511400
1+
#520000
0"
#521400
0+
#530000
1"
#531400
1+
#540000
0"
#541400
0+
#550000
1"
#551400
1+
1,
#551600
04
00
05
1i
#553400
0)
#553500
0W
0U
0S
#560000
0"
#561400
0+
#570000
1"
#571400
1+
#580000
0"
#581400
0+
#590000
1"
#591400
1+
#600000
0"
#601400
0+
#610000
1"
#611400
1+
#620000
0"
#621400
0+
#630000
1"
#631400
1+
0,
#631600
0R
01
0A
#633400
0(
#633500
0P
0N
0L
#640000
0"
0%
#641400
0+
#641600
0/
1r
#642300
1c
1b
0`
#650000
1"
#651400
1+
#660000
0"
#661400
0+
#670000
1"
#671400
1+
#680000
0"
#681400
0+
#690000
1"
#691400
1+
#700000
0"
#701400
0+
#710000
1"
#711400
1+
1,
#711600
0K
0_
0<
02
0I
1e
1h
1k
1m
1s
#713400
0'
#713500
1G
1d
0c
0J
#720000
0"
#721400
0+
#730000
1"
#731400
1+
#740000
0"
#741400
0+
#750000
1"
#751400
1+
#760000
0"
#761400
0+
#770000
1"
#771400
1+
#780000
0"
#781400
0+
#790000
1"
#791400
1+
0,
#800000
0"
#801400
0+
#810000
1"
#811400
1+
#820000
0"
#821400
0+
#830000
1"
#831400
1+
#840000
0"
1%
#841400
0+
#841600
1/
0r
#850000
1"
#851400
1+
#860000
0"
#861400
0+
#870000
1"
#871400
1+
1,
#880000
0"
#881400
0+
#890000
1"
#891400
1+
#900000
0"
#901400
0+
#910000
1"
#911400
1+
#920000
0"
#921400
0+
#930000
1"
#931400
1+
#940000
0"
#941400
0+
#950000
1"
#951400
1+
0,
#960000
0"
#961400
0+
#970000
1"
#971400
1+
#980000
0"
#981400
0+
#990000
1"
#991400
1+
#1000000
0"
0$
#1001400
0+
#1001600
0.
#1002300
0d
0^
0\
0b
1`
0Z
#1010000
1"
#1011400
1+
#1020000
0"
#1021400
0+
#1030000
1"
#1031400
1+
1,
#1031600
0Y
1_
1<
0>
1g
1j
1l
1n
1p
0e
0h
0k
0m
0s
#1033500
0G
1Q
1H
1N
1L
#1040000
0"
#1041400
0+
#1050000
1"
#1051400
1+
#1060000
0"
#1061400
0+
#1070000
1"
#1071400
1+
#1080000
0"
#1081400
0+
#1090000
1"
#1091400
1+
#1100000
0"
#1101400
0+
#1110000
1"
#1111400
1+
0,
#1111600
1K
12
1I
#1113400
1'
#1113500
1X
1U
1S
#1120000
0"
#1121400
0+
#1130000
1"
#1131400
1+
#1140000
0"
#1141400
0+
#1150000
1"
#1151400
1+
#1160000
0"
#1161400
0+
#1170000
1"
#1171400
1+
#1180000
0"
#1181400
0+
#1190000
1"
#1191400
1+
1,
#1191600
1R
11
1A
#1193400
1(
#1193500
1B
1;
16
#1200000
0"
#1201400
0+
#1210000
1"
#1211400
1+
#1220000
0"
#1221400
0+
#1230000
1"
#1231400
1+
#1240000
0"
#1241400
0+
#1250000
1"
#1251400
1+
#1260000
0"
#1261400
0+
#1270000
1"
#1271400
1+
0,
#1271600
14
10
15
0i
#1273400
1)
#1273500
0H
0F
0D
#1280000
0"
#1281400
0+
#1290000
1"
#1291400
1+
#1300000
0"
#1301400
0+
#1310000
1"
#1311400
1+
#1320000
0"
#1321400
0+
#1330000
1"
#1331400
1+
#1340000
0"
#1341400
0+
#1350000
1"
#1351400
1+
1,
#1351600
0C
03
0?
1f
#1353400
0&
#1353500
0Q
0N
0L
#1360000
0"
#1361400
0+
#1370000
1"
#1371400
1+
#1380000
0"
#1381400
0+
#1390000
1"
#1391400
1+
#1400000
0"
0#
#1401400
0+
#1401600
0-
1o
#1402300
1]
1\
1Z
#1410000
1"
#1411400
1+
#1420000
0"
#1421400
0+
#1430000
1"
#1431400
1+
0,
#1431600
0K
1Y
1>
02
0I
0g
0j
0l
0n
0p
#1433400
0'
#1433500
0B
0]
1W
1P
1@
0X
1N
0\
0Z
1L
#1440000
0"
#1441400
0+
#1450000
1"
#1451400
1+
#1460000
0"
#1461400
0+
#1470000
1"
#1471400
1+
#1480000
0"
#1481400
0+
#1490000
1"
#1491400
1+
#1500000
0"
#1501400
0+
#1510000
1"
#1511400
1+
1,
#1511600
1K
0Y
0>
12
1I
1g
1j
1l
1n
1p
#1513400
1'
#1513500
1B
1]
0W
0P
0@
1X
0N
1\
1Z
0L
#1520000
0"
#1521400
0+
#1530000
1"
#1531400
1+
#1540000
0"
#1541400
0+
#1550000
1"
#1551400
1+
#1560000
0"
#1561400
0+
#1570000
1"
#1571400
1+
#1580000
0"
#1581400
0+
#1590000
1"
#1591400
1+
0,
#1591600
0K
1Y
1>
02
0I
0g
0j
0l
0n
0p
#1593400
0'
#1593500
0B
0]
1W
1P
1@
0X
1N
0\
0Z
1L
#1600000
0"
#1601400
0+
#1610000
1"
#1611400
1+
#1620000
0"
#1621400
0+
#1630000
1"
#1631400
1+
#1640000
0"
#1641400
0+
#1650000
1"
#1651400
1+
#1660000
0"
#1661400
0+
#1670000
1"
#1671400
1+
1,
#1671600
1K
0Y
0>
12
1I
1g
1j
1l
1n
1p
#1673400
1'
#1673500
1B
1]
0W
0P
0@
1X
0N
1\
1Z
0L
#1680000
0"
#1681400
0+
#1690000
1"
#1691400
1+
#1700000
0"
#1701400
0+
#1710000
1"
#1711400
1+
#1720000
0"
#1721400
0+
#1730000
1"
#1731400
1+
#1740000
0"
#1741400
0+
#1750000
1"
#1751400
1+
0,
#1751600
0K
1Y
1>
02
0I
0g
0j
0l
0n
0p
#1753400
0'
#1753500
0B
0]
1W
1P
1@
0X
1N
0\
0Z
1L
#1760000
0"
#1761400
0+
#1770000
1"
#1771400
1+
#1780000
0"
#1781400
0+
#1790000
1"
#1791400
1+
#1800000
0"
#1801400
0+
#1810000
1"
#1811400
1+
#1820000
0"
#1821400
0+
#1830000
1"
#1831400
1+
1,
#1831600
1K
0Y
0>
12
1I
1g
1j
1l
1n
1p
#1833400
1'
#1833500
1B
1]
0W
0P
0@
1X
0N
1\
1Z
0L
#1840000
0"
#1841400
0+
#1850000
1"
#1851400
1+
#1860000
0"
#1861400
0+
#1870000
1"
#1871400
1+
#1880000
0"
#1881400
0+
#1890000
1"
#1891400
1+
#1900000
0"
#1901400
0+
#1910000
1"
#1911400
1+
0,
#1911600
0K
1Y
1>
02
0I
0g
0j
0l
0n
0p
#1913400
0'
#1913500
0B
0]
1W
1P
1@
0X
1N
0\
0Z
1L
#1920000
0"
#1921400
0+
#1930000
1"
#1931400
1+
#1940000
0"
#1941400
0+
#1950000
1"
#1951400
1+
#1960000
0"
#1961400
0+
#1970000
1"
#1971400
1+
#1980000
0"
#1981400
0+
#1990000
1"
#1991400
1+
1,
#1991600
1K
0Y
0>
12
1I
1g
1j
1l
1n
1p
#1993400
1'
#1993500
1B
1]
0W
0P
0@
1X
0N
1\
1Z
0L
#2000000
0"
#2001400
0+
#2010000
1"
#2011400
1+
#2020000
0"
#2021400
0+
#2030000
1"
#2031400
1+
#2040000
0"
#2041400
0+
#2050000
1"
#2051400
1+
#2060000
0"
#2061400
0+
#2070000
1"
#2071400
1+
0,
#2071600
0K
1Y
1>
02
0I
0g
0j
0l
0n
0p
#2073400
0'
#2073500
0B
0]
1W
1P
1@
0X
1N
0\
0Z
1L
#2080000
0"
#2081400
0+
#2090000
1"
#2091400
1+
#2100000
0"
#2101400
0+
#2110000
1"
#2111400
1+
#2120000
0"
#2121400
0+
#2130000
1"
#2131400
1+
#2140000
0"
#2141400
0+
#2150000
1"
#2151400
1+
1,
#2151600
1K
0Y
0>
12
1I
1g
1j
1l
1n
1p
#2153400
1'
#2153500
1B
1]
0W
0P
0@
1X
0N
1\
1Z
0L
#2160000
0"
#2161400
0+
#2170000
1"
#2171400
1+
#2180000
0"
#2181400
0+
#2190000
1"
#2191400
1+
#2200000
0"
#2201400
0+
#2210000
1"
#2211400
1+
#2220000
0"
#2221400
0+
#2230000
1"
#2231400
1+
0,
#2231600
0K
1Y
1>
02
0I
0g
0j
0l
0n
0p
#2233400
0'
#2233500
0B
0]
1W
1P
1@
0X
1N
0\
0Z
1L
#2240000
0"
#2241400
0+
#2250000
1"
#2251400
1+
#2260000
0"
#2261400
0+
#2270000
1"
#2271400
1+
#2280000
0"
#2281400
0+
#2290000
1"
#2291400
1+
#2300000
0"
#2301400
0+
#2310000
1"
#2311400
1+
1,
#2311600
1K
0Y
0>
12
1I
1g
1j
1l
1n
1p
#2313400
1'
#2313500
1B
1]
0W
0P
0@
1X
0N
1\
1Z
0L
#2320000
0"
#2321400
0+
#2330000
1"
#2331400
1+
#2340000
0"
#2341400
0+
#2350000
1"
#2351400
1+
#2360000
0"
#2361400
0+
#2370000
1"
#2371400
1+
#2380000
0"
#2381400
0+
#2390000
1"
#2391400
1+
0,
#2391600
0K
1Y
1>
02
0I
0g
0j
0l
0n
0p
#2393400
0'
#2393500
0B
0]
1W
1P
1@
0X
1N
0\
0Z
1L
#2400000
0"
1$
#2401400
0+
#2401600
1.
#2402300
1^
1\
1Z
#2410000
1"
#2411400
1+
#2420000
0"
#2421400
0+
#2430000
1"
#2431400
1+
#2440000
0"
#2441400
0+
#2450000
1"
#2451400
1+
#2460000
0"
#2461400
0+
#2470000
1"
#2471400
1+
1,
#2471600
1K
12
1I
#2473400
1'
#2473500
1J
1F
1D
#2480000
0"
#2481400
0+
#2490000
1"
#2491400
1+
#2500000
0"
#2501400
0+
#2510000
1"
#2511400
1+
#2520000
0"
#2521400
0+
#2530000
1"
#2531400
1+
#2540000
0"
#2541400
0+
#2550000
1"
#2551400
1+
0,
#2551600
1C
13
1?
0f
#2553400
1&
#2553500
0@
0;
06
#2560000
0"
1#
#2561400
0+
#2561600
1-
0o
#2570000
1"
#2571400
1+
#2580000
0"
#2581400
0+
#2590000
1"
#2591400
1+
#2600000
0"
#2601400
0+
#2610000
1"
#2611400
1+
#2620000
0"
#2621400
0+
#2630000
1"
#2631400
1+
1,
#2631600
04
00
05
1i
#2633400
0)
#2633500
0W
0U
0S
#2640000
0"
#2641400
0+
#2650000
1"
#2651400
1+
#2660000
0"
#2661400
0+
#2670000
1"
#2671400
1+
#2680000
0"
#2681400
0+
#2690000
1"
#2691400
1+
#2700000
0"
#2701400
0+
#2710000
1"
#2711400
1+
0,
#2711600
0R
01
0A
#2713400
0(
#2713500
0P
0N
0L
#2720000
0"
#2721400
0+
#2730000
1"
#2731400
1+
#2740000
0"
#2741400
0+
#2750000
1"
#2751400
1+
#2760000
0"
#2761400
0+
#2770000
1"
#2771400
1+
#2780000
0"
#2781400
0+
#2790000
1"
#2791400
1+
1,
#2791600
0K
02
0I
#2793400
0'
#2793500
0J
0F
0D
#2800000
0"
#2801400
0+
#2810000
1"
#2811400
1+
#2820000
0"
#2821400
0+
#2830000
1"
#2831400
1+
#2840000
0"
#2841400
0+
#2850000
1"
#2851400
1+
#2860000
0"
#2861400
0+
#2870000
1"
#2871400
1+
0,
#2871600
0C
03
0?
1f
#2873400
0&
#2873500
1@
1;
16
#2880000
0"
#2881400
0+
#2890000
1"
#2891400
1+
#2900000
0"
#2901400
0+
#2910000
1"
#2911400
1+
#2920000
0"
#2921400
0+
#2930000
1"
#2931400
1+
#2940000
0"
#2941400
0+
#2950000
1"
#2951400
1+
1,
#2951600
14
10
15
0i
#2953400
1)
#2953500
1W
1U
1S
#2960000
0"
#2961400
0+
#2970000
1"
#2971400
1+
#2980000
0"
#2981400
0+
#2990000
1"
#2991400
1+
#3000000
0"
#3001400
0+
#3010000
1"
#3011400
1+
#3020000
0"
#3021400
0+
#3030000
1"
#3031400
1+
0,
#3031600
1R
11
1A
#3033400
1(
#3033500
1P
1N
1L
#3040000
0"
#3041400
0+
#3050000
1"
#3051400
1+
#3060000
0"
#3061400
0+
#3070000
1"
#3071400
1+
#3080000
0"
#3081400
0+
#3090000
1"
#3091400
1+
#3100000
0"
#3101400
0+
#3110000
1"
#3111400
1+
1,
#3111600
1K
12
1I
#3113400
1'
#3113500
1J
1F
1D
#3120000
0"
#3121400
0+
#3130000
1"
#3131400
1+
#3140000
0"
#3141400
0+
#3150000
1"
#3151400
1+
#3160000
0"
#3161400
0+
#3170000
1"
#3171400
1+
#3180000
0"
#3181400
0+
#3190000
1"
#3191400
1+
0,
#3191600
1C
13
1?
0f
#3193400
1&
#3193500
0@
0;
06
#3200000
0"
#3201400
0+
#3210000
1"
#3211400
1+
#3220000
0"
#3221400
0+
#3230000
1"
#3231400
1+
#3240000
0"
#3241400
0+
#3250000
1"
#3251400
1+
#3260000
0"
#3261400
0+
#3270000
1"
#3271400
1+
1,
#3271600
04
00
05
1i
#3273400
0)
#3273500
0W
0U
0S
#3280000
0"
#3281400
0+
#3290000
1"
#3291400
1+
#3300000
0"
#3301400
0+
#3310000
1"
#3311400
1+
#3320000
0"
#3321400
0+
#3330000
1"
#3331400
1+
#3340000
0"
#3341400
0+
#3350000
1"
#3351400
1+
0,
#3351600
0R
01
0A
#3353400
0(
#3353500
0P
0N
0L
#3360000
0"
#3361400
0+
#3370000
1"
#3371400
1+
#3380000
0"
#3381400
0+
#3390000
1"
#3391400
1+
#3400000
0"
#3401400
0+
#3410000
1"
#3411400
1+
#3420000
0"
#3421400
0+
#3430000
1"
#3431400
1+
1,
#3431600
0K
02
0I
#3433400
0'
#3433500
0J
0F
0D
#3440000
0"
#3441400
0+
#3450000
1"
#3451400
1+
#3460000
0"
#3461400
0+
#3470000
1"
#3471400
1+
#3480000
0"
#3481400
0+
#3490000
1"
#3491400
1+
#3500000
0"
#3501400
0+
#3510000
1"
#3511400
1+
0,
#3511600
0C
03
0?
1f
#3513400
0&
#3513500
1@
1;
16
#3520000
0"
#3521400
0+
#3530000
1"
#3531400
1+
#3540000
0"
#3541400
0+
#3550000
1"
#3551400
1+
#3560000
0"
#3561400
0+
#3570000
1"
#3571400
1+
#3580000
0"
#3581400
0+
#3590000
1"
#3591400
1+
1,
#3591600
14
10
15
0i
#3593400
1)
#3593500
1W
1U
1S
#3600000
0"
#3601400
0+
#3610000
1"
#3611400
1+
#3620000
0"
#3621400
0+
#3630000
1"
#3631400
1+
#3640000
0"
#3641400
0+
#3650000
1"
#3651400
1+
#3660000
0"
#3661400
0+
#3670000
1"
#3671400
1+
0,
#3671600
1R
11
1A
#3673400
1(
#3673500
1P
1N
1L
#3680000
0"
#3681400
0+
#3690000
1"
#3691400
1+
#3700000
0"
#3701400
0+
#3710000
1"
#3711400
1+
#3720000
0"
#3721400
0+
#3730000
1"
#3731400
1+
#3740000
0"
#3741400
0+
#3750000
1"
#3751400
1+
1,
#3751600
1K
12
1I
#3753400
1'
#3753500
1J
1F
1D
#3760000
0"
#3761400
0+
#3770000
1"
#3771400
1+
#3780000
0"
#3781400
0+
#3790000
1"
#3791400
1+
#3800000
0"
#3801400
0+
#3810000
1"
#3811400
1+
#3820000
0"
#3821400
0+
#3830000
1"
#3831400
1+
0,
#3831600
1C
13
1?
0f
#3833400
1&
#3833500
0@
0;
06
#3840000
0"
#3841400
0+
#3850000
1"
#3851400
1+
#3860000
0"
#3861400
0+
#3870000
1"
#3871400
1+
#3880000
0"
#3881400
0+
#3890000
1"
#3891400
1+
#3900000
0"
#3901400
0+
#3910000
1"
#3911400
1+
1,
#3911600
04
00
05
1i
#3913400
0)
#3913500
0W
0U
0S
#3920000
0"
#3921400
0+
#3930000
1"
#3931400
1+
#3940000
0"
#3941400
0+
#3950000
1"
#3951400
1+
#3960000
0"
#3961400
0+
#3970000
1"
#3971400
1+
#3980000
0"
#3981400
0+
#3990000
1"
#3991400
1+
0,
#3991600
0R
01
0A
#3993400
0(
#3993500
0P
0N
0L
