ISEexamples/Examples/sdram_ver_134/sdrm.vcd
$date
	Wed Mar 10 15:31:11 2004
$end
$version
	ModelSim Version 5.8b
$end
$timescale
	1ps
$end
$scope module t_sdrm $end
$var parameter 32 ! hi_z $end
$var reg 32 " ad [31:0] $end
$var reg 1 # data_addr_n $end
$var reg 1 $ we_rn $end
$var reg 1 % clk $end
$var reg 1 & reset $end
$var wire 1 ' cke $end
$var wire 1 ( cs1 $end
$var wire 1 ) cs2 $end
$var wire 1 * dqm [3] $end
$var wire 1 + dqm [2] $end
$var wire 1 , dqm [1] $end
$var wire 1 - dqm [0] $end
$var wire 1 . addr [10] $end
$var wire 1 / addr [9] $end
$var wire 1 0 addr [8] $end
$var wire 1 1 addr [7] $end
$var wire 1 2 addr [6] $end
$var wire 1 3 addr [5] $end
$var wire 1 4 addr [4] $end
$var wire 1 5 addr [3] $end
$var wire 1 6 addr [2] $end
$var wire 1 7 addr [1] $end
$var wire 1 8 addr [0] $end
$var wire 1 9 AD [31] $end
$var wire 1 : AD [30] $end
$var wire 1 ; AD [29] $end
$var wire 1 < AD [28] $end
$var wire 1 = AD [27] $end
$var wire 1 > AD [26] $end
$var wire 1 ? AD [25] $end
$var wire 1 @ AD [24] $end
$var wire 1 A AD [23] $end
$var wire 1 B AD [22] $end
$var wire 1 C AD [21] $end
$var wire 1 D AD [20] $end
$var wire 1 E AD [19] $end
$var wire 1 F AD [18] $end
$var wire 1 G AD [17] $end
$var wire 1 H AD [16] $end
$var wire 1 I AD [15] $end
$var wire 1 J AD [14] $end
$var wire 1 K AD [13] $end
$var wire 1 L AD [12] $end
$var wire 1 M AD [11] $end
$var wire 1 N AD [10] $end
$var wire 1 O AD [9] $end
$var wire 1 P AD [8] $end
$var wire 1 Q AD [7] $end
$var wire 1 R AD [6] $end
$var wire 1 S AD [5] $end
$var wire 1 T AD [4] $end
$var wire 1 U AD [3] $end
$var wire 1 V AD [2] $end
$var wire 1 W AD [1] $end
$var wire 1 X AD [0] $end
$var wire 1 Y DQ [31] $end
$var wire 1 Z DQ [30] $end
$var wire 1 [ DQ [29] $end
$var wire 1 \ DQ [28] $end
$var wire 1 ] DQ [27] $end
$var wire 1 ^ DQ [26] $end
$var wire 1 _ DQ [25] $end
$var wire 1 ` DQ [24] $end
$var wire 1 a DQ [23] $end
$var wire 1 b DQ [22] $end
$var wire 1 c DQ [21] $end
$var wire 1 d DQ [20] $end
$var wire 1 e DQ [19] $end
$var wire 1 f DQ [18] $end
$var wire 1 g DQ [17] $end
$var wire 1 h DQ [16] $end
$var wire 1 i DQ [15] $end
$var wire 1 j DQ [14] $end
$var wire 1 k DQ [13] $end
$var wire 1 l DQ [12] $end
$var wire 1 m DQ [11] $end
$var wire 1 n DQ [10] $end
$var wire 1 o DQ [9] $end
$var wire 1 p DQ [8] $end
$var wire 1 q DQ [7] $end
$var wire 1 r DQ [6] $end
$var wire 1 s DQ [5] $end
$var wire 1 t DQ [4] $end
$var wire 1 u DQ [3] $end
$var wire 1 v DQ [2] $end
$var wire 1 w DQ [1] $end
$var wire 1 x DQ [0] $end
$var wire 1 y Reset $end
$var wire 1 z clk_con $end
$var wire 1 { ras_n $end
$var wire 1 | cas_n $end
$var wire 1 } we_n $end
$var wire 1 ~ ba $end
$var reg 200 !! string_proc_cmd [200:1] $end
$var reg 200 "! string_ctrl_state [200:1] $end
$var reg 200 #! string_ctrl_next_state [200:1] $end
$var reg 200 $! string_sdrm_cmd [200:1] $end
$var reg 200 %! string_next_sdrm_cmd [200:1] $end
$var wire 1 &! proc_cmd [2] $end
$var wire 1 '! proc_cmd [1] $end
$var wire 1 (! proc_cmd [0] $end
$var wire 1 )! sdrm_cmd [2] $end
$var wire 1 *! sdrm_cmd [1] $end
$var wire 1 +! sdrm_cmd [0] $end
$upscope $end
$enddefinitions $end
#0
$dumpvars
bz !
bz "
1#
1$
1%
1&
b1000100010000010101010001000001010111110101011101010010 !!
bx "!
bx #!
bx $!
bx %!
x'
x(
x)
x-
x,
x+
x*
x8
x7
x6
x5
x4
x3
x2
x1
x0
x/
x.
xX
xW
xV
xU
xT
xS
xR
xQ
xP
xO
xN
xM
xL
xK
xJ
xI
xH
xG
xF
xE
xD
xC
xB
xA
x@
x?
x>
x=
x<
x;
x:
x9
xx
xw
xv
xu
xt
xs
xr
xq
xp
xo
xn
xm
xl
xk
xj
xi
xh
xg
xf
xe
xd
xc
xb
xa
x`
x_
x^
x]
x\
x[
xZ
xY
1y
xz
x{
x|
x}
x~
1(!
1'!
0&!
x+!
x*!
x)!
$end
#5000
0%
#5459
0z
#5597
0+
0*
0-
0,
1'
0)
0(
#6734
08
0.
07
06
05
04
03
02
1|
01
00
0~
0/
1{
1}
0S
0V
0?
0W
0I
0J
0D
0L
0H
0K
0X
1+!
1*!
1)!
b10011100100111101010000 $!
#6823
0N
0G
0R
0Q
#6840
0P
0O
#6849
0<
#7071
0@
#7324
0;
#7577
0=
0M
0A
#7778
zh
#7783
zd
#8094
zw
#8117
zn
#8307
0C
0E
0:
#8331
z\
#8366
zk
#8370
zp
#8375
zl
#8444
z_
#8523
zg
#8541
0F
0>
#8559
09
0U
#8560
zv
#8609
zi
#8614
zm
#8672
zx
#8775
0B
#8808
zs
#8847
zj
#8851
zo
#8951
z`
#9004
za
#9008
0T
#9043
zY
#9048
zZ
z^
#9144
z[
#9180
zu
#9199
zr
zq
#9249
zc
#9333
zt
#9382
z]
#9716
zf
#9949
zb
#9964
ze
#10000
0$
0(!
b1000100010000010101010001000001010111110101001001000100 !!
#30000
1%
#40000
0%
#50000
1%
#55000
0&
0y
#60000
0%
#70000
1%
#80000
0%
#90000
1%
#100000
0%
#110000
1%
#120000
0%
#130000
1%
#140000
0%
#150000
1%
#160000
0%
#170000
1%
#180000
0%
#190000
1%
#200000
0%
#210000
1%
#212948
1z
#217948
0z
#220000
0%
#230000
1%
#232948
1z
#234621
0z
#240000
0%
#249621
1z
#250000
1%
#254621
0z
#260000
0%
#269621
1z
#270000
1%
#274621
0z
#280000
0%
#289621
1z
#290000
1%
#293849
zX
#294102
zK
zH
zI
z?
#294159
zS
#294164
zL
#294345
zJ
#294355
zD
#294397
zV
#294407
zW
#294614
zN
zG
zR
zQ
#294621
0z
#294631
zP
zO
#294640
z<
#294862
z@
#295115
z;
#295368
z=
zM
zA
#296098
zC
zE
z:
#296332
zF
z>
#296350
z9
zU
#296566
zB
#296799
zT
