ISEexamples/Examples/flash/flash.vcd
$date
	Tue Mar 09 16:30:58 2004
$end
$version
	ModelSim Version 5.8b
$end
$timescale
	1ps
$end
$scope module testbench $end
$scope module uut $end
$var wire 1 ! HALFCLK $end
$var wire 1 " P_Q7 $end
$var wire 1 # P_Q6 $end
$var wire 1 $ P_Q5 $end
$var wire 1 % P_Q4 $end
$var wire 1 & P_Q3 $end
$var wire 1 ' P_Q2 $end
$var wire 1 ( P_Q1 $end
$var wire 1 ) P_Q0 $end
$var wire 1 * RESET $end
$var wire 1 + clkin $end
$var wire 1 , LED [6] $end
$var wire 1 - LED [5] $end
$var wire 1 . LED [4] $end
$var wire 1 / LED [3] $end
$var wire 1 0 LED [2] $end
$var wire 1 1 LED [1] $end
$var wire 1 2 LED [0] $end
$var wire 1 3 XLXN_36 $end
$var wire 1 4 RESET_IBUF $end
$var wire 1 5 I5_sel $end
$var wire 1 6 P_Q1_OBUF $end
$var wire 1 7 P_Q3_OBUF $end
$var wire 1 8 I5_I12/M0 $end
$var wire 1 9 P_Q7_OBUF $end
$var wire 1 : I5_I32/TQ $end
$var wire 1 ; P_Q0_OBUF $end
$var wire 1 < P_Q2_OBUF $end
$var wire 1 = P_Q4_OBUF $end
$var wire 1 > P_Q5_OBUF $end
$var wire 1 ? P_Q6_OBUF $end
$var wire 1 @ LED_0_OBUF $end
$var wire 1 A LED_1_OBUF $end
$var wire 1 B LED_2_OBUF $end
$var wire 1 C LED_3_OBUF $end
$var wire 1 D LED_4_OBUF $end
$var wire 1 E LED_5_OBUF $end
$var wire 1 F LED_6_OBUF $end
$var wire 1 G clkin_IBUFG $end
$var wire 1 H HALFCLK_OBUF $end
$var wire 1 I GLOBAL_LOGIC1 $end
$var wire 1 J XLXN_37 $end
$var wire 1 K I5_I16/M1 $end
$var wire 1 L I5_XLXN_26 $end
$var wire 1 M I5_XLXN_16 $end
$var wire 1 N I5_XLXN_23 $end
$var wire 1 O I5_XLXN_27 $end
$var wire 1 P I6_I5/D3 $end
$var wire 1 Q I6_I5/D2 $end
$var wire 1 R I5_XLXN_22 $end
$var wire 1 S I5_XLXN_21 $end
$var wire 1 T I6_I5/D1 $end
$var wire 1 U GLOBAL_LOGIC1_0 $end
$var wire 1 V GSR $end
$var wire 1 W GTS $end
$var wire 1 X P_Q7_OBUF/DXMUX $end
$var wire 1 Y P_Q7_OBUF/F $end
$var wire 1 Z P_Q7_OBUF/DYMUX $end
$var wire 1 [ P_Q7_OBUF/G $end
$var wire 1 \ P_Q7_OBUF/SRFFMUX $end
$var wire 1 ] P_Q7_OBUF/CLKINV $end
$var wire 1 ^ P_Q0/ENABLE $end
$var wire 1 _ P_Q0/GTS_OR_T $end
$var wire 1 ` P_Q0/O $end
$var wire 1 a P_Q1/ENABLE $end
$var wire 1 b P_Q1/GTS_OR_T $end
$var wire 1 c P_Q1/O $end
$var wire 1 d P_Q2/ENABLE $end
$var wire 1 e P_Q2/GTS_OR_T $end
$var wire 1 f P_Q2/O $end
$var wire 1 g P_Q7_OBUF/FFY/RST $end
$var wire 1 h P_Q3/ENABLE $end
$var wire 1 i P_Q3/GTS_OR_T $end
$var wire 1 j P_Q3/O $end
$var wire 1 k P_Q4/ENABLE $end
$var wire 1 l P_Q4/GTS_OR_T $end
$var wire 1 m P_Q4/O $end
$var wire 1 n P_Q5/ENABLE $end
$var wire 1 o P_Q5/GTS_OR_T $end
$var wire 1 p P_Q5/O $end
$var wire 1 q P_Q6/ENABLE $end
$var wire 1 r P_Q6/GTS_OR_T $end
$var wire 1 s P_Q6/O $end
$var wire 1 t P_Q7/ENABLE $end
$var wire 1 u P_Q7/GTS_OR_T $end
$var wire 1 v P_Q7/O $end
$var wire 1 w LED<0>/ENABLE $end
$var wire 1 x LED<0>/GTS_OR_T $end
$var wire 1 y LED<0>/O $end
$var wire 1 z LED<1>/ENABLE $end
$var wire 1 { LED<1>/GTS_OR_T $end
$var wire 1 | LED<1>/O $end
$var wire 1 } LED<2>/ENABLE $end
$var wire 1 ~ LED<2>/GTS_OR_T $end
$var wire 1 !! LED<2>/O $end
$var wire 1 "! LED<3>/ENABLE $end
$var wire 1 #! LED<3>/GTS_OR_T $end
$var wire 1 $! LED<3>/O $end
$var wire 1 %! LED<4>/ENABLE $end
$var wire 1 &! LED<4>/GTS_OR_T $end
$var wire 1 '! LED<4>/O $end
$var wire 1 (! LED<5>/ENABLE $end
$var wire 1 )! LED<5>/GTS_OR_T $end
$var wire 1 *! LED<5>/O $end
$var wire 1 +! LED<6>/ENABLE $end
$var wire 1 ,! LED<6>/GTS_OR_T $end
$var wire 1 -! LED<6>/O $end
$var wire 1 .! clkin/INBUF $end
$var wire 1 /! HALFCLK/ENABLE $end
$var wire 1 0! HALFCLK/GTS_OR_T $end
$var wire 1 1! HALFCLK/O $end
$var wire 1 2! RESET/INBUF $end
$var wire 1 3! I3/S_INVNOT $end
$var wire 1 4! I4/S_INVNOT $end
$var wire 1 5! P_Q4_OBUF/DYMUX $end
$var wire 1 6! P_Q4_OBUF/G $end
$var wire 1 7! P_Q4_OBUF/SRFFMUX $end
$var wire 1 8! P_Q4_OBUF/SRINVNOT $end
$var wire 1 9! P_Q4_OBUF/CLKINV $end
$var wire 1 :! P_Q2_OBUF/DXMUX $end
$var wire 1 ;! P_Q2_OBUF/F $end
$var wire 1 <! P_Q2_OBUF/DYMUX $end
$var wire 1 =! P_Q2_OBUF/G $end
$var wire 1 >! P_Q2_OBUF/SRFFMUX $end
$var wire 1 ?! P_Q2_OBUF/CLKINV $end
$var wire 1 @! P_Q0_OBUF/DXMUX $end
$var wire 1 A! P_Q0_OBUF/F $end
$var wire 1 B! P_Q0_OBUF/DYMUX $end
$var wire 1 C! P_Q0_OBUF/G $end
$var wire 1 D! P_Q0_OBUF/SRFFMUX $end
$var wire 1 E! P_Q0_OBUF/CLKINV $end
$var wire 1 F! I6_hex<3>/DXMUX $end
$var wire 1 G! I6_hex<3>/F $end
$var wire 1 H! I6_hex<3>/DYMUX $end
$var wire 1 I! I6_hex<3>/G $end
$var wire 1 J! I6_hex<3>/SRFFMUX $end
$var wire 1 K! I6_hex<3>/CLKINV $end
$var wire 1 L! P_Q6_OBUF/DXMUX $end
$var wire 1 M! P_Q6_OBUF/F $end
$var wire 1 N! P_Q6_OBUF/DYMUX $end
$var wire 1 O! P_Q6_OBUF/G $end
$var wire 1 P! P_Q6_OBUF/SRFFMUX $end
$var wire 1 Q! P_Q6_OBUF/CLKINV $end
$var wire 1 R! LED_4_OBUF/F $end
$var wire 1 S! LED_4_OBUF/G $end
$var wire 1 T! LED_3_OBUF/F $end
$var wire 1 U! LED_3_OBUF/G $end
$var wire 1 V! P_Q7_OBUF/FFX/RST $end
$var wire 1 W! LED_6_OBUF/F $end
$var wire 1 X! LED_6_OBUF/G $end
$var wire 1 Y! I6_hex<1>/DXMUX $end
$var wire 1 Z! I6_hex<1>/F $end
$var wire 1 [! I6_hex<1>/DYMUX $end
$var wire 1 \! I6_hex<1>/G $end
$var wire 1 ]! I6_hex<1>/BYINVNOT $end
$var wire 1 ^! I6_hex<1>/SRFFMUX $end
$var wire 1 _! I6_hex<1>/CLKINV $end
$var wire 1 `! HALFCLK_OBUF/DYMUX $end
$var wire 1 a! HALFCLK_OBUF/BYINVNOT $end
$var wire 1 b! HALFCLK_OBUF/CLKINV $end
$var wire 1 c! I6_hex<3>/FFX/RST $end
$var wire 1 d! P_Q6_OBUF/FFY/RST $end
$var wire 1 e! P_Q6_OBUF/FFX/RST $end
$var wire 1 f! P_Q2_OBUF/FFY/RST $end
$var wire 1 g! P_Q2_OBUF/FFX/RST $end
$var wire 1 h! P_Q0_OBUF/FFY/RST $end
$var wire 1 i! P_Q0_OBUF/FFX/RST $end
$var wire 1 j! I6_hex<3>/FFY/RST $end
$var wire 1 k! P_Q4_OBUF/FFY/SET $end
$var wire 1 l! HALFCLK_OBUF/FFY/RST $end
$var wire 1 m! HALFCLK_OBUF/FFY/RSTAND $end
$var wire 1 n! I6_hex<1>/FFY/RST $end
$var wire 1 o! I6_hex<1>/FFX/RST $end
$var wire 1 p! VCC $end
$var wire 1 q! GND $end
$var wire 1 r! I6_hex [3] $end
$var wire 1 s! I6_hex [2] $end
$var wire 1 t! I6_hex [1] $end
$var wire 1 u! I6_hex [0] $end
$upscope $end
$upscope $end
$enddefinitions $end
#0
$dumpvars
x3
x4
x5
x6
x7
x8
x9
x:
x;
x<
x=
x>
x?
x@
xA
xB
xC
xD
xE
xF
xG
xH
1I
xJ
xK
xL
xM
xN
xO
xP
xQ
xR
xS
xT
1U
1V
0W
xX
xY
xZ
x[
x\
x]
x^
x_
x`
xa
xb
xc
xd
xe
xf
xg
xh
xi
xj
xk
xl
xm
xn
xo
xp
xq
xr
xs
xt
xu
xv
xw
xx
xy
xz
x{
x|
x}
x~
x!!
x"!
x#!
x$!
x%!
x&!
x'!
x(!
x)!
x*!
x+!
x,!
x-!
x.!
x/!
x0!
x1!
x2!
x3!
x4!
x5!
x6!
x7!
x8!
x9!
x:!
x;!
x<!
x=!
x>!
x?!
x@!
xA!
xB!
xC!
xD!
xE!
xF!
xG!
xH!
xI!
xJ!
xK!
xL!
xM!
xN!
xO!
xP!
xQ!
xR!
xS!
xT!
xU!
xV!
xW!
xX!
xY!
xZ!
x[!
x\!
x]!
x^!
x_!
x`!
xa!
xb!
xc!
xd!
xe!
xf!
xg!
xh!
xi!
xj!
xk!
xl!
xm!
xn!
xo!
1p!
0q!
xu!
xt!
xs!
xr!
x2
x1
x0
x/
x.
x-
x,
1+
1*
x)
x(
x'
x&
x%
x$
x#
x"
x!
$end
#10
03!
04!
#772
1.!
12!
#832
1G
14
#892
13
#1155
1m!
1l!
#1565
1b!
1Q!
1E!
1?!
19!
1]
#1917
1^!
1o!
1n!
#1941
1J!
1j!
1c!
#2229
0H
#2389
08!
#2403
1P!
1>!
1e!
1d!
1g!
1f!
#2405
07!
#2408
1D!
1\
1i!
1h!
1V!
1g
#2991
0u!
0t!
#3015
0r!
0s!
#3082
1a!
#3217
0J
#3251
1`!
#3477
07
0<
06
0?
#3482
05
09
0>
0;
#3507
0\!
#3515
0Z!
#3534
0T
0Y!
#3547
0E
#3552
00!
0,!
0)!
0&!
0#!
0~
0{
0x
0u
0r
0o
0l
0i
0e
0b
0_
1/!
1+!
1(!
1%!
1"!
1}
1z
1w
1t
1q
1n
1k
1h
1d
1a
1^
#3583
0I!
#3591
0G!
#3610
0P
0F!
#3623
0Q
0H!
#3689
0X!
0S!
#3697
0R!
#3716
0D
#3729
0B
0@
#3739
1W!
#3758
1F
#3808
1]!
#3814
0U!
#3836
01!
#3854
0A
#3882
0K!
#3885
0_!
#3899
0T!
#3918
0C
#3972
0Y
#3977
1[!
#3978
06!
#3991
08
0X
#4013
0M!
#4018
0K
05!
#4032
0R
0L!
#4034
0[
0C!
#4074
0:
0O
0Z
0B!
#4334
0O!
#4374
0S
0N!
#4556
0;!
#4575
0L
0:!
#4637
0A!
#4656
0N
0@!
#4792
1k!
#4828
0v
0f
#4841
0c
#4878
0y
#4880
0`
#4993
0p
#5067
0'!
#5070
0!!
#5264
0j
#5313
0s
#5345
0*!
#5425
0!
#5475
1-!
#5866
1=
#6057
0|
#6280
0$!
#6393
1=!
#6417
0'
0"
#6430
0(
#6433
1M
1<!
#6467
02
#6469
0)
#6582
0$
#6656
0.
#6659
00
#6853
0&
#6902
0#
#6934
0-
#7064
1,
#7242
1m
#7646
01
#7869
0/
#8831
1%
#20000
0+
#20772
0.!
#20832
0G
#20892
03
#21565
0b!
0Q!
0E!
0?!
09!
0]
#40000
1+
#40772
1.!
#40832
1G
#40892
13
#41565
1b!
1Q!
1E!
1?!
19!
1]
#50000
0*
#50772
02!
#50832
04
#51155
0m!
#51917
0^!
#51941
0J!
#52389
18!
#52403
0P!
0>!
#52405
17!
#52408
0D!
0\
#60000
0+
#60772
0.!
#60832
0G
#60892
03
#61565
0b!
0Q!
0E!
0?!
09!
0]
#80000
1+
#80772
1.!
#80832
1G
#80892
13
#81565
1b!
1Q!
1E!
1?!
19!
1]
#100000
0+
0V
#100772
0.!
#100832
0G
#100892
03
#101565
0b!
0Q!
0E!
0?!
09!
0]
#104792
0o!
0n!
0l!
0j!
0i!
0h!
0g!
0f!
0e!
0d!
0c!
0V!
0g
#120000
1+
#120772
1.!
#120832
1G
#120892
13
#121565
1b!
1Q!
1E!
1?!
19!
1]
#121935
1H
17
#122406
1C!
#122446
1O
1B!
#122788
0a!
#122923
1J
#122957
0`!
#123542
11!
#123588
1K!
#123591
1_!
#123722
1j
#123961
1u!
#124477
1\!
#124485
1Z!
#124504
1T
1Y!
#124517
1E
#124621
1S!
#124635
1R!
#124654
1D
#124661
1@
#124778
0]!
#124798
1T!
#124817
1C
#124947
0[!
#125131
1!
#125311
1&
#125810
1y
#126005
1'!
#126315
1*!
#127179
1$!
#127399
12
#127594
1.
#127904
1-
#128768
1/
#140000
0+
#140772
0.!
#140832
0G
#140892
03
#141565
0b!
0Q!
0E!
0?!
09!
0]
#160000
1+
#160772
1.!
#160832
1G
#160892
13
#161565
1b!
1Q!
1E!
1?!
19!
1]
#161935
0H
1>
#162788
1a!
#162923
0J
#162957
1`!
#163009
1;!
#163028
1L
1:!
#163446
1p
#163542
01!
#163588
0K!
#163591
0_!
#165035
1$
#165131
0!
#180000
0+
#180772
0.!
#180832
0G
#180892
03
#181565
0b!
0Q!
0E!
0?!
09!
0]
#200000
1+
#200772
1.!
#200832
1G
#200892
13
#201565
1b!
1Q!
1E!
1?!
19!
1]
#201935
1H
1<
#202788
0a!
#202923
1J
#202957
0`!
#203095
1A!
#203114
1N
1@!
#203286
1f
#203542
11!
#203588
1K!
#203591
1_!
#203961
1t!
0u!
#204434
0S!
#204446
0W!
0Z!
#204465
0T
0F
0Y!
#204474
0@
#204485
1Z!
#204504
1T
1Y!
#204621
1X!
#204635
0R!
#204654
0D
#204661
1B
#204690
0T!
#204709
0C
#204778
1]!
#204875
1'
#204947
1[!
#205131
1!
#205623
0y
#206002
1!!
#206005
0'!
#206182
0-!
#207071
0$!
#207212
02
#207591
10
#207594
0.
#207771
0,
#208660
0/
#220000
0+
#220772
0.!
#220832
0G
#220892
03
#221565
0b!
0Q!
0E!
0?!
09!
0]
#240000
1+
#240772
1.!
#240832
1G
#240892
13
#241565
1b!
1Q!
1E!
1?!
19!
1]
#241935
0H
1;
#242466
1M!
#242485
1R
1L!
#242788
1a!
#242923
0J
#242957
1`!
#243333
1`
#243542
01!
#243588
0K!
#243591
0_!
#244922
1)
#245131
0!
#260000
0+
#260772
0.!
#260832
0G
#260892
03
#261565
0b!
0Q!
0E!
0?!
09!
0]
#280000
1+
#280772
1.!
#280832
1G
#280892
13
#281565
1b!
1Q!
1E!
1?!
19!
1]
#281935
1H
1?
#282788
0a!
#282792
1O!
#282832
1S
1N!
#282923
1J
#282957
0`!
#283542
11!
#283588
1K!
#283591
1_!
#283771
1s
#283961
1u!
#284485
0Z!
#284504
0T
0Y!
#284505
1I!
#284545
1Q
1H!
#284621
0X!
#284635
1R!
#284654
1D
#284661
0B
#284778
0]!
#284947
0[!
#285131
1!
#285360
1#
#286002
0!!
#286005
1'!
#287591
00
#287594
1.
#300000
0+
#300772
0.!
#300832
0G
#300892
03
#301565
0b!
0Q!
0E!
0?!
09!
0]
#320000
1+
#320772
1.!
#320832
1G
#320892
13
#321565
1b!
1Q!
1E!
1?!
19!
1]
#321935
0H
16
#322422
1[
#322430
1Y
#322449
18
1X
#322462
1:
1Z
#322788
1a!
#322923
0J
#322957
1`!
#323299
1c
#323542
01!
#323588
0K!
#323591
0_!
#324888
1(
#325131
0!
#340000
0+
#340772
0.!
#340832
0G
#340892
03
#341565
0b!
0Q!
0E!
0?!
09!
0]
#360000
1+
#360772
1.!
#360832
1G
#360892
13
#361565
1b!
1Q!
1E!
1?!
19!
1]
#361935
1H
19
15
#362414
0O!
#362454
0S
0N!
#362487
0[
#362501
16!
#362506
0Y
#362525
08
0X
#362527
0:
0Z
#362541
1K
15!
#362630
1O!
#362670
1S
1N!
#362788
0a!
#362923
1J
#362957
0`!
#363281
1v
#363542
11!
#363588
1K!
#363591
1_!
#363958
1s!
#363961
0t!
0u!
#364434
1S!
#364446
1W!
1Z!
#364465
1F
1T
1Y!
#364474
1@
#364477
0\!
#364485
0Z!
#364504
0T
0Y!
#364505
0I!
#364517
0E
#364526
1I!
#364534
1G!
#364553
1P
1F!
#364578
0G!
#364597
0P
0F!
#364621
0S!
#364632
1S!
#364635
0R!
#364640
0W!
1R!
#364659
0F
#364690
1T!
#364709
1C
#364778
1]!
#364798
0T!
#364817
0C
#364842
1T!
#364861
1C
#364870
1"
#364947
1[!
#365131
1!
#365623
1y
#366315
0*!
#367212
12
#367223
1$!
#367904
0-
#368812
1/
#380000
0+
#380772
0.!
#380832
0G
#380892
03
#381565
0b!
0Q!
0E!
0?!
09!
0]
#400000
1+
#400772
1.!
#400832
1G
#400892
13
#401565
1b!
1Q!
1E!
1?!
19!
1]
#401935
0H
09
05
#402487
1[
#402501
06!
#402506
1Y
#402525
18
1X
#402527
1:
1Z
#402541
0K
05!
#402788
1a!
#402923
0J
#402957
1`!
#403281
0v
#403542
01!
#403588
0K!
#403591
0_!
#404870
0"
#405131
0!
#420000
0+
#420772
0.!
#420832
0G
#420892
03
#421565
0b!
0Q!
0E!
0?!
09!
0]
#440000
1+
#440772
1.!
#440832
1G
#440892
13
#441565
1b!
1Q!
1E!
1?!
19!
1]
#441935
1H
19
15
#442414
0O!
#442454
0S
0N!
#442487
0[
#442501
16!
#442506
0Y
#442525
08
0X
#442527
0:
0Z
#442541
1K
15!
#442630
1O!
#442670
1S
1N!
#442788
0a!
#442923
1J
#442957
0`!
#443281
1v
#443542
11!
#443588
1K!
#443591
1_!
#443961
1u!
#444485
1Z!
#444504
1T
1Y!
#444621
0S!
#444661
0@
#444778
0]!
#444784
1U!
#444798
0T!
#444817
0C
#444824
1A
#444870
1"
#444947
0[!
#445131
1!
#445810
0y
#447027
1|
#447179
0$!
#447399
02
#448616
11
#448768
0/
#460000
0+
#460772
0.!
#460832
0G
#460892
03
#461565
0b!
0Q!
0E!
0?!
09!
0]
#480000
1+
#480772
1.!
#480832
1G
#480892
13
#481565
1b!
1Q!
1E!
1?!
19!
1]
#481935
0H
09
05
#482487
1[
#482501
06!
#482506
1Y
#482525
18
1X
#482527
1:
1Z
#482541
0K
05!
#482788
1a!
#482923
0J
#482957
1`!
#483281
0v
#483542
01!
#483588
0K!
#483591
0_!
#484870
0"
#485131
0!
#500000
0+
#500772
0.!
#500832
0G
#500892
03
#501565
0b!
0Q!
0E!
0?!
09!
0]
#520000
1+
#520772
1.!
#520832
1G
#520892
13
#521565
1b!
1Q!
1E!
1?!
19!
1]
#521935
1H
19
15
#522414
0O!
#522454
0S
0N!
#522487
0[
#522501
16!
#522506
0Y
#522525
08
0X
#522527
0:
0Z
#522541
1K
15!
#522630
1O!
#522670
1S
1N!
#522788
0a!
#522923
1J
#522957
0`!
#523281
1v
#523542
11!
#523588
1K!
#523591
1_!
#523961
1t!
0u!
#524434
1\!
#524446
1W!
0Z!
#524465
1F
0T
0Y!
#524474
1E
#524477
0\!
#524485
1Z!
#524504
1T
1Y!
#524517
0E
#524578
1G!
#524597
1P
1F!
#524635
0R!
0W!
#524654
0F
0D
#524682
0U!
#524690
1T!
#524709
1C
#524722
0A
#524778
1]!
#524784
1U!
#524798
0T!
#524817
0C
#524824
1A
#524870
1"
#524947
1[!
#525077
0G!
#525096
0P
0F!
#525131
1!
#526005
0'!
#527594
0.
#540000
0+
#540772
0.!
#540832
0G
#540892
03
#541565
0b!
0Q!
0E!
0?!
09!
0]
#560000
1+
#560772
1.!
#560832
1G
#560892
13
#561565
1b!
1Q!
1E!
1?!
19!
1]
#561935
0H
09
05
#562487
1[
#562501
06!
#562506
1Y
#562525
18
1X
#562527
1:
1Z
#562541
0K
05!
#562788
1a!
#562923
0J
#562957
1`!
#563281
0v
#563542
01!
#563588
0K!
#563591
0_!
#564870
0"
#565131
0!
#580000
0+
#580772
0.!
#580832
0G
#580892
03
#581565
0b!
0Q!
0E!
0?!
09!
0]
#600000
1+
#600772
1.!
#600832
1G
#600892
13
#601565
1b!
1Q!
1E!
1?!
19!
1]
#601935
1H
19
15
#602414
0O!
#602454
0S
0N!
#602487
0[
#602501
16!
#602506
0Y
#602525
08
0X
#602527
0:
0Z
#602541
1K
15!
#602630
1O!
#602670
1S
1N!
#602788
0a!
#602923
1J
#602957
0`!
#603281
1v
#603542
11!
#603588
1K!
#603591
1_!
#603961
1u!
#604477
1\!
#604485
0Z!
#604504
0T
0Y!
#604505
0I!
#604517
1E
#604545
0Q
0H!
#604635
1R!
1W!
#604654
1D
1F
#604778
0]!
#604784
0U!
#604798
1T!
#604817
1C
#604824
0A
#604870
1"
#604947
0[!
#605077
1G!
#605096
1P
1F!
#605131
1!
#606005
1'!
#606315
1*!
#606371
1-!
#607027
0|
#607179
1$!
#607594
1.
#607904
1-
#607960
1,
#608616
01
#608768
1/
#620000
0+
#620772
0.!
#620832
0G
#620892
03
#621565
0b!
0Q!
0E!
0?!
09!
0]
#640000
1+
#640772
1.!
#640832
1G
#640892
13
#641565
1b!
1Q!
1E!
1?!
19!
1]
#641935
0H
09
05
#642487
1[
#642501
06!
#642506
1Y
#642525
18
1X
#642527
1:
1Z
#642541
0K
05!
#642788
1a!
#642923
0J
#642957
1`!
#643281
0v
#643542
01!
#643588
0K!
#643591
0_!
#644870
0"
#645131
0!
#660000
0+
#660772
0.!
#660832
0G
#660892
03
#661565
0b!
0Q!
0E!
0?!
09!
0]
#680000
1+
#680772
1.!
#680832
1G
#680892
13
#681565
1b!
1Q!
1E!
1?!
19!
1]
#681935
1H
19
15
#682414
0O!
#682454
0S
0N!
#682487
0[
#682501
16!
#682506
0Y
#682525
08
0X
#682527
0:
0Z
#682541
1K
15!
#682630
1O!
#682670
1S
1N!
#682788
0a!
#682923
1J
#682957
0`!
#683281
1v
#683542
11!
#683588
1K!
#683591
1_!
#683958
0s!
1r!
#683961
0t!
0u!
#684434
0\!
#684446
0W!
1Z!
#684465
0F
1T
1Y!
#684474
0E
#684485
0Z!
#684493
0G!
#684504
0T
0Y!
#684505
1I!
#684512
0P
0F!
#684526
0I!
#684557
1U!
#684597
1A
#684621
1S!
#684632
0S!
#684640
0R!
1W!
#684659
1F
0D
#684682
0U!
0W!
#684690
0T!
#684701
0F
#684709
0C
#684722
0A
#684778
1]!
#684784
1U!
#684824
1A
#684830
0U!
#684870
0A
1"
#684947
1[!
#685077
1G!
#685096
1P
1F!
#685131
1!
#686010
0'!
#686272
0*!
#686418
0-!
#687071
0$!
#687599
0.
#687861
0-
#688007
0,
#688660
0/
#700000
0+
#700772
0.!
#700832
0G
#700892
03
#701565
0b!
0Q!
0E!
0?!
09!
0]
#720000
1+
#720772
1.!
#720832
1G
#720892
13
#721565
1b!
1Q!
1E!
1?!
19!
1]
#721935
0H
09
05
#722487
1[
#722501
06!
#722506
1Y
#722525
18
1X
#722527
1:
1Z
#722541
0K
05!
#722788
1a!
#722923
0J
#722957
1`!
#723281
0v
#723542
01!
#723588
0K!
#723591
0_!
#724870
0"
#725131
0!
#740000
0+
#740772
0.!
#740832
0G
#740892
03
#741565
0b!
0Q!
0E!
0?!
09!
0]
#760000
1+
#760772
1.!
#760832
1G
#760892
13
#761565
1b!
1Q!
1E!
1?!
19!
1]
#761935
1H
19
15
#762414
0O!
#762454
0S
0N!
#762487
0[
#762501
16!
#762506
0Y
#762525
08
0X
#762527
0:
0Z
#762541
1K
15!
#762630
1O!
#762670
1S
1N!
#762788
0a!
#762923
1J
#762957
0`!
#763281
1v
#763542
11!
#763588
1K!
#763591
1_!
#763961
1u!
#764635
1R!
#764654
1D
#764778
0]!
#764870
1"
#764947
0[!
#765077
0G!
#765096
0P
0F!
#765131
1!
#766005
1'!
#767594
1.
#780000
0+
#780772
0.!
#780832
0G
#780892
03
#781565
0b!
0Q!
0E!
0?!
09!
0]
#800000
1+
#800772
1.!
#800832
1G
#800892
13
#801565
1b!
1Q!
1E!
1?!
19!
1]
#801935
0H
09
05
#802487
1[
#802501
06!
#802506
1Y
#802525
18
1X
#802527
1:
1Z
#802541
0K
05!
#802788
1a!
#802923
0J
#802957
1`!
#803281
0v
#803542
01!
#803588
0K!
#803591
0_!
#804870
0"
#805131
0!
#820000
0+
#820772
0.!
#820832
0G
#820892
03
#821565
0b!
0Q!
0E!
0?!
09!
0]
#840000
1+
#840772
1.!
#840832
1G
#840892
13
#841565
1b!
1Q!
1E!
1?!
19!
1]
#841935
1H
19
15
#842414
0O!
#842454
0S
0N!
#842487
0[
#842501
16!
#842506
0Y
#842525
08
0X
#842527
0:
0Z
#842541
1K
15!
#842630
1O!
#842670
1S
1N!
#842788
0a!
#842923
1J
#842957
0`!
#843281
1v
#843542
11!
#843588
1K!
#843591
1_!
#843958
0r!
#843961
0u!
#844576
1T!
#844595
1C
#844635
0R!
#844654
0D
#844682
1W!
#844701
1F
#844778
1]!
#844798
0T!
#844817
0C
#844870
1"
#844947
1[!
#845131
1!
#846005
0'!
#846418
1-!
#847594
0.
#848007
1,
#860000
0+
#860772
0.!
#860832
0G
#860892
03
#861565
0b!
0Q!
0E!
0?!
09!
0]
#880000
1+
#880772
1.!
#880832
1G
#880892
13
#881565
1b!
1Q!
1E!
1?!
19!
1]
#881935
0H
09
05
#882487
1[
#882501
06!
#882506
1Y
#882525
18
1X
#882527
1:
1Z
#882541
0K
05!
#882788
1a!
#882923
0J
#882957
1`!
#883281
0v
#883542
01!
#883588
0K!
#883591
0_!
#884870
0"
#885131
0!
#900000
0+
#900772
0.!
#900832
0G
#900892
03
#901565
0b!
0Q!
0E!
0?!
09!
0]
#920000
1+
#920772
1.!
#920832
1G
#920892
13
#921565
1b!
1Q!
1E!
1?!
19!
1]
#921935
1H
19
15
#922414
0O!
#922454
0S
0N!
#922487
0[
#922501
16!
#922506
0Y
#922525
08
0X
#922527
0:
0Z
#922541
1K
15!
#922630
1O!
#922670
1S
1N!
#922788
0a!
#922923
1J
#922957
0`!
#923281
1v
#923542
11!
#923588
1K!
#923591
1_!
#923961
1u!
#924477
1\!
#924485
1Z!
#924504
1T
1Y!
#924517
1E
#924621
1S!
#924635
1R!
#924654
1D
#924661
1@
#924778
0]!
#924798
1T!
#924817
1C
#924870
1"
#924947
0[!
#925131
1!
#925810
1y
#926005
1'!
#926315
1*!
#927179
1$!
#927399
12
#927594
1.
#927904
1-
#928768
1/
#940000
0+
#940772
0.!
#940832
0G
#940892
03
#941565
0b!
0Q!
0E!
0?!
09!
0]
#960000
1+
#960772
1.!
#960832
1G
#960892
13
#961565
1b!
1Q!
1E!
1?!
19!
1]
#961935
0H
09
05
#962487
1[
#962501
06!
#962506
1Y
#962525
18
1X
#962527
1:
1Z
#962541
0K
05!
#962788
1a!
#962923
0J
#962957
1`!
#963281
0v
#963542
01!
#963588
0K!
#963591
0_!
#964870
0"
#965131
0!
#980000
0+
#980772
0.!
#980832
0G
#980892
03
#981565
0b!
0Q!
0E!
0?!
09!
0]
